[
  {
    "id": 1,
    "name": "The Student Hotel The Hague",
    "description": "With the lounge/bar as one of the top facilities. Order a drink and enjoy your stay!",
    "image": "student-hotel/1.jpg",
    "address": "Hoefkade 9 The Hague",
    "stars": 3,
    "availableFacilities": [
      {
        "id": 1,
        "name": "Breakfast",
        "pricePerNight": 10
      },
      {
        "id": 2,
        "name": "Dinner",
        "pricePerNight": 8
      },
      {
        "id": 3,
        "name": "Wifi",
        "pricePerNight": 2
      },
      {
        "id": 4,
        "name": "Library",
        "pricePerNight": null
      }
    ],
    "rooms": [
      {
        "id": 1,
        "name": "Executive Room",
        "image": "student-hotel/2.jpg",
        "price": 79,
        "size": 19,
        "bed": "Kingsize Bed, 2 Person",
        "quantity": 1,
        "facilities": [
          {
            "id": 1,
            "name": "Breakfast",
            "pricePerNight": 10
          }
        ],
        "availableFacilities": [
          {
            "id": 2,
            "name": "Dinner",
            "pricePerNight": 8
          },
          {
            "id": 3,
            "name": "Wifi",
            "pricePerNight": 2
          }
        ]
      },
      {
        "id": 2,
        "name": "Suite",
        "image": "student-hotel/3.jpg",
        "price": 99,
        "size": 21,
        "bed": "Kingsize Bed, 2 Person",
        "quantity": 4,
        "facilities": [
          {
            "id": 1,
            "name": "Breakfast",
            "pricePerNight": 10
          },
          {
            "id": 2,
            "name": "Dinner",
            "pricePerNight": 8
          },
          {
            "id": 3,
            "name": "Wifi",
            "pricePerNight": 2
          }
        ],
        "availableFacilities": []
      }
    ],
    "reviews": [
      {
        "id": 1,
        "user": "Danny Nieuwmans",
        "email": "danny.nieuwmans@local.host",
        "rating": 4,
        "content": "A very good hotel, the room choice is a bit limited"
      },
      {
        "id": 2,
        "user": "John Doe",
        "email": "john.doe@local.host",
        "rating": 3,
        "content": "Has a limited room selection, food was not bad but not the best."
      },
      {
        "id": 3,
        "user": "Jane Doe",
        "email": "jane.doe@local.host",
        "rating": 2,
        "content": "The food was terrible..."
      }
    ]
  }
]
